<svg xmlns="http://www.w3.org/2000/svg" width="1867.649" height="497.024" viewBox="0 0 1867.649 497.024">
  <path id="Path_174" data-name="Path 174" d="M2569,5484.612,2697.921,5259l128.921,225.612H2569" transform="translate(-4777.489 -1717.151) rotate(-45)" fill="none" stroke="#b0e6d6" stroke-width="2"/>
  <path id="Path_175" data-name="Path 175" d="M2569,5436.243,2670.282,5259l101.282,177.243H2569" transform="translate(7082.382 3026.432) rotate(143)" fill="none" stroke="#b0e6d6" stroke-width="2"/>
  <path id="Path_180" data-name="Path 180" d="M2569,5531.977,2724.986,5259l155.987,272.977H2569" transform="translate(1382.725 -5648.657) rotate(38)" fill="none" stroke="#b0e6d6" stroke-width="2"/>
</svg>