<svg xmlns="http://www.w3.org/2000/svg" xmlns:xlink="http://www.w3.org/1999/xlink" width="52" height="52" viewBox="0 0 52 52">
  <defs>
    <clipPath id="clip-triangle-left">
      <rect width="52" height="52"/>
    </clipPath>
  </defs>
  <g id="triangle-left" clip-path="url(#clip-triangle-left)">
    <g id="Group_227" data-name="Group 227" transform="translate(51.994 0.006) rotate(90)">
      <g id="Ellipse_5" data-name="Ellipse 5" transform="translate(-0.006 -0.006)" fill="none" stroke="#1162ce" stroke-width="1">
        <circle cx="26" cy="26" r="26" stroke="none"/>
        <circle cx="26" cy="26" r="25.5" fill="none"/>
      </g>
      <path id="Path_194" data-name="Path 194" d="M18.727,0H0L9.364,16.386Z" transform="translate(17.003 21.074)" fill="#1162ce"/>
    </g>
  </g>
</svg>
